{
  "slides": [
    {
      "components": [
        {
          "TextBox": {},
          "x": 87,
          "y": 105,
          "scale": {
            "x": 1,
            "y": 1
          },
          "type": "TextBox",
          "text": "<div align=\"center\">&nbsp;Regard sur les relations de l’industrie pharmaceutique <br>avec les étudiants des&nbsp; facultés de Médecine.<br><br>L'exemple de l'Esprit Critique Niçois<br></div>",
          "size": 36,
          "selected": false,
          "skewX": 0
        },
        {
          "src": "http://i.imgur.com/O7MChJG.png",
          "type": "Image",
          "x": 421,
          "y": 682,
          "scale": {
            "x": 0.182,
            "y": 0.182,
            "width": 182,
            "height": 64.064
          },
          "imageType": "PNG",
          "selected": false
        },
        {
          "TextBox": {},
          "x": 89,
          "y": 393,
          "scale": {
            "x": 1,
            "y": 1
          },
          "type": "TextBox",
          "size": 16,
          "text": "Liens et conflits d’intérêts : quelle (in)dépendance professionnelle ? Enjeux de formation des (futurs) professionnels de santé",
          "selected": false
        },
        {
          "TextBox": {},
          "x": 423,
          "y": 534,
          "scale": {
            "x": 1,
            "y": 1
          },
          "type": "TextBox",
          "size": 16,
          "text": "Mardi 26 septembre 2017<br>",
          "selected": false
        }
      ],
      "z": 0,
      "impScale": 3,
      "rotateX": 0,
      "rotateY": 0,
      "rotateZ": 0,
      "index": 0,
      "selected": false,
      "active": false,
      "x": 180,
      "y": 180
    },
    {
      "components": [
        {
          "src": "https://i.imgur.com/D1VmSbf.png",
          "type": "Image",
          "x": -13,
          "y": 67,
          "scale": {
            "x": 1,
            "y": 1
          },
          "imageType": "PNG",
          "selected": false
        },
        {
          "TextBox": {},
          "x": 16,
          "y": 733,
          "scale": {
            "x": 1,
            "y": 1
          },
          "type": "TextBox",
          "size": 12,
          "text": "Oeuvre de Simon \"Gee\" Giraudot et diffusés sous licence Creative Commons By-Sa",
          "selected": false
        }
      ],
      "z": 0,
      "impScale": 3,
      "rotateX": 0,
      "rotateY": 0,
      "rotateZ": 0,
      "index": 1,
      "selected": false,
      "active": false,
      "surface": "bg-surf-grad-light",
      "x": 171,
      "y": 386
    },
    {
      "components": [
        {
          "src": "http://i.imgur.com/QSKDZXE.png",
          "type": "Image",
          "x": 259,
          "y": 152,
          "scale": {
            "x": 0.6458598726114649,
            "y": 0.6458598726114649,
            "width": 507,
            "height": 463.7273885350318
          },
          "imageType": "PNG",
          "selected": false
        },
        {
          "TextBox": {},
          "x": 425,
          "y": 44,
          "scale": {
            "x": 1,
            "y": 1
          },
          "type": "TextBox",
          "size": 48,
          "text": "<font>La thèse</font>",
          "selected": false
        }
      ],
      "z": 0,
      "impScale": 3,
      "rotateX": 0,
      "rotateY": 0,
      "rotateZ": 0,
      "index": 2,
      "selected": false,
      "active": false,
      "surface": "bg-surf-grad-light",
      "x": 654,
      "y": 383
    },
    {
      "components": [
        {
          "src": "http://i.imgur.com/7Z1dEM0.jpg",
          "type": "Image",
          "x": 333,
          "y": 138,
          "scale": {
            "x": 0.5352323838080959,
            "y": 0.5352323838080959,
            "width": 356.99999999999994,
            "height": 492.94902548725634
          },
          "imageType": "JPG",
          "selected": false
        },
        {
          "TextBox": {},
          "x": 324,
          "y": 44,
          "scale": {
            "x": 1,
            "y": 1
          },
          "type": "TextBox",
          "size": 48,
          "text": "<font>La Troupe Du Rire</font>",
          "selected": false
        }
      ],
      "z": 0,
      "impScale": 3,
      "rotateX": 0,
      "rotateY": 0,
      "rotateZ": 0,
      "index": 3,
      "selected": false,
      "active": false,
      "x": 658,
      "y": 180
    },
    {
      "components": [
        {
          "TextBox": {},
          "x": 340,
          "y": 44,
          "scale": {
            "x": 1,
            "y": 1
          },
          "type": "TextBox",
          "size": 48,
          "text": "<font>Notre démarche</font>",
          "selected": false
        },
        {
          "TextBox": {},
          "x": 30,
          "y": 168,
          "scale": {
            "x": 1,
            "y": 1
          },
          "type": "TextBox",
          "size": 36,
          "text": "<font>Eveiller l'esprit critique</font>",
          "selected": false
        },
        {
          "TextBox": {},
          "x": 30,
          "y": 350,
          "scale": {
            "x": 1,
            "y": 1
          },
          "type": "TextBox",
          "size": 36,
          "text": "<font class=\"\">Outils pédagogiques innovants et participatifs</font>",
          "selected": false
        },
        {
          "src": "https://i.imgur.com/ANyrcuA.jpg",
          "type": "Image",
          "x": 335,
          "y": 451,
          "scale": {
            "x": 0.3466796875,
            "y": 0.3466796875,
            "width": 355,
            "height": 269.3701171875
          },
          "imageType": "JPG",
          "selected": false
        },
        {
          "TextBox": {},
          "x": 700,
          "y": 605,
          "scale": {
            "x": 1,
            "y": 1
          },
          "type": "TextBox",
          "size": 24,
          "text": "Good/bad, bad/good?<br>Jeroen Heester<br>NDSM Amsterdam<br>2017<br>",
          "selected": false
        },
        {
          "TextBox": {},
          "x": 63,
          "y": 271,
          "scale": {
            "x": 1,
            "y": 1
          },
          "type": "TextBox",
          "size": 19,
          "text": "&nbsp;Esprit critique. Esprit qui n'accepte aucune assertion sans contrôler la valeur de son contenu et son origine.",
          "selected": false
        },
        {
          "TextBox": {},
          "x": 607,
          "y": 303,
          "scale": {
            "x": 1,
            "y": 1
          },
          "type": "TextBox",
          "size": 16,
          "text": "centre naitonal de ressources textuelles et lexicales<br>",
          "selected": false
        }
      ],
      "z": 0,
      "impScale": 3,
      "rotateX": 0,
      "rotateY": 0,
      "rotateZ": 0,
      "index": 4,
      "selected": true,
      "active": true,
      "x": 1033,
      "y": 173,
      "background": "bg-transparent"
    },
    {
      "components": [
        {
          "TextBox": {},
          "x": 194,
          "y": 36,
          "scale": {
            "x": 1,
            "y": 1
          },
          "type": "TextBox",
          "size": 48,
          "text": "Deux journées déjà organisées<br>",
          "selected": false
        },
        {
          "TextBox": {},
          "x": 97,
          "y": 256,
          "scale": {
            "x": 1,
            "y": 1
          },
          "type": "TextBox",
          "size": 48,
          "text": "<div align=\"center\">23 avril 2016: liens avec les industries<br>19 novembre 2016: les lanceurs d'alerte<br></div>",
          "selected": false
        },
        {
          "src": "https://i.imgur.com/7BqUUyT.jpg",
          "type": "Image",
          "x": 161,
          "y": 444,
          "scale": {
            "x": 0.6868884540117417,
            "y": 0.6868884540117417,
            "width": 702,
            "height": 219.1174168297456
          },
          "imageType": "JPG",
          "selected": false
        }
      ],
      "z": 0,
      "impScale": 3,
      "rotateX": 0,
      "rotateY": 0,
      "rotateZ": 0,
      "index": 5,
      "selected": false,
      "active": false,
      "x": 1036,
      "y": 350
    },
    {
      "components": [
        {
          "TextBox": {},
          "x": 293,
          "y": 44,
          "scale": {
            "x": 1,
            "y": 1
          },
          "type": "TextBox",
          "size": 48,
          "text": "<font>Ciné-débat-mouvant</font>",
          "selected": false
        },
        {
          "src": "http://i.imgur.com/WQ4Rqv8.jpg",
          "type": "Image",
          "x": 185,
          "y": 139,
          "scale": {
            "x": 0.5458333333333333,
            "y": 0.5458333333333333,
            "width": 654.9999999999999,
            "height": 491.24999999999994
          },
          "imageType": "JPG",
          "selected": false
        }
      ],
      "z": 0,
      "impScale": 3,
      "rotateX": 0,
      "rotateY": 1.57,
      "rotateZ": 0,
      "index": 6,
      "selected": false,
      "active": false,
      "x": 1044,
      "y": 533
    },
    {
      "components": [
        {
          "TextBox": {},
          "x": 191,
          "y": 44,
          "scale": {
            "x": 1,
            "y": 1
          },
          "type": "TextBox",
          "size": 48,
          "text": "<font>Le théâtre de la visite médicale</font>",
          "selected": false
        },
        {
          "src": "http://i.imgur.com/07IE7sB.jpg",
          "type": "Image",
          "x": 224,
          "y": 192,
          "scale": {
            "x": 0.28125,
            "y": 0.28125,
            "width": 576,
            "height": 383.90625
          },
          "imageType": "JPG",
          "selected": false
        }
      ],
      "z": 0,
      "impScale": 3,
      "rotateX": 0,
      "rotateY": 1.57,
      "rotateZ": 0,
      "index": 7,
      "selected": false,
      "active": false,
      "x": 1048,
      "y": 700
    },
    {
      "components": [
        {
          "TextBox": {},
          "x": 434,
          "y": 44,
          "scale": {
            "x": 1,
            "y": 1
          },
          "type": "TextBox",
          "size": 48,
          "text": "<font>A vous!</font>",
          "selected": false
        },
        {
          "src": "http://i.imgur.com/KcnsTfW.jpg",
          "type": "Image",
          "x": 235,
          "y": 181,
          "scale": {
            "x": 0.28854166666666664,
            "y": 0.28854166666666664,
            "width": 554,
            "height": 407.1322916666666
          },
          "imageType": "JPG",
          "selected": false
        }
      ],
      "z": 0,
      "impScale": 3,
      "rotateX": 0,
      "rotateY": 0,
      "rotateZ": 0,
      "index": 8,
      "selected": false,
      "active": false,
      "surface": "bg-surf-grad-light",
      "x": 1373,
      "y": 497
    },
    {
      "components": [
        {
          "TextBox": {},
          "x": 318,
          "y": 44,
          "scale": {
            "x": 1,
            "y": 1
          },
          "type": "TextBox",
          "size": 48,
          "text": "<font>Première question</font>",
          "selected": false
        },
        {
          "TextBox": {},
          "x": 8,
          "y": 151,
          "scale": {
            "x": 1,
            "y": 1
          },
          "type": "TextBox",
          "size": 48,
          "text": "<b>Pensez vous que les médecins peuvent être<br>influencés par des cadeaux de petite valeur, par<br>exemple se faire offrir un stylo ou des kouign-<br>amann ?</b><br>",
          "selected": false
        },
        {
          "TextBox": {},
          "x": 117,
          "y": 494,
          "scale": {
            "x": 1,
            "y": 1
          },
          "type": "TextBox",
          "size": 36,
          "text": "Gardez la main en l’air si vous pensez que c'est vrai.<br>",
          "selected": false
        },
        {
          "TextBox": {},
          "x": 117,
          "y": 570,
          "scale": {
            "x": 1,
            "y": 1
          },
          "type": "TextBox",
          "size": 36,
          "text": "Baissez la main si vous pensez que c’est faux.<br>",
          "selected": false
        }
      ],
      "z": 0,
      "impScale": 3,
      "rotateX": 0,
      "rotateY": 0,
      "rotateZ": 0,
      "index": 9,
      "selected": false,
      "active": false,
      "x": 1580,
      "y": 700
    },
    {
      "components": [
        {
          "TextBox": {},
          "x": 279,
          "y": 44,
          "scale": {
            "x": 1,
            "y": 1
          },
          "type": "TextBox",
          "size": 48,
          "text": "<font>Deuxième proposition</font>",
          "selected": false
        },
        {
          "TextBox": {},
          "x": 14,
          "y": 186,
          "scale": {
            "x": 1,
            "y": 1
          },
          "type": "TextBox",
          "size": 45,
          "text": "<font><b>\"Un médecin sans conflit d’intérêt, est un médecin<br>sans intérêt.\"</b><br></font>",
          "selected": false
        },
        {
          "TextBox": {},
          "x": 117,
          "y": 494,
          "scale": {
            "x": 1,
            "y": 1
          },
          "type": "TextBox",
          "size": 36,
          "text": "Gardez la main en l’air si vous pensez que c'est vrai.<br>",
          "selected": false
        },
        {
          "TextBox": {},
          "x": 117,
          "y": 570,
          "scale": {
            "x": 1,
            "y": 1
          },
          "type": "TextBox",
          "size": 36,
          "text": "Baissez la main si vous pensez que c’est faux.<br>",
          "selected": false
        }
      ],
      "z": 0,
      "impScale": 3,
      "rotateX": 0,
      "rotateY": 0,
      "rotateZ": 0,
      "index": 10,
      "selected": false,
      "active": false,
      "x": 1823,
      "y": 519
    },
    {
      "components": [
        {
          "TextBox": {},
          "x": 284,
          "y": 44,
          "scale": {
            "x": 1,
            "y": 1
          },
          "type": "TextBox",
          "size": 48,
          "text": "<font>Troisième question</font>",
          "selected": false
        },
        {
          "TextBox": {},
          "x": 63,
          "y": 143,
          "scale": {
            "x": 1,
            "y": 1
          },
          "type": "TextBox",
          "size": 48,
          "text": "<font>Pensez-vous figurer sur la base de données <br>transparence.sante.gouv.fr?</font>",
          "selected": false
        },
        {
          "TextBox": {},
          "x": 117,
          "y": 494,
          "scale": {
            "x": 1,
            "y": 1
          },
          "type": "TextBox",
          "size": 36,
          "text": "<font>Gardez la main en l'air si vous pensez y figurer.</font>",
          "selected": false
        },
        {
          "TextBox": {},
          "x": 117,
          "y": 570,
          "scale": {
            "x": 1,
            "y": 1
          },
          "type": "TextBox",
          "size": 36,
          "text": "<font>Baissez la main si vous ne pensez pas y figurer.</font>",
          "selected": false
        },
        {
          "TextBox": {},
          "x": 383,
          "y": 310,
          "scale": {
            "x": 1,
            "y": 1
          },
          "type": "TextBox",
          "size": 36,
          "text": "<ul><li><font color=\"#000000\">conventions</font></li><li><font color=\"#000000\">avantages</font></li><li><font color=\"#000000\">rémunérations<br></font></li></ul>",
          "selected": false
        }
      ],
      "z": 0,
      "impScale": 3,
      "rotateX": 0,
      "rotateY": 0,
      "rotateZ": 0,
      "index": 11,
      "selected": false,
      "active": false,
      "x": 2066,
      "y": 342
    },
    {
      "components": [
        {
          "TextBox": {},
          "x": 303,
          "y": 44,
          "scale": {
            "x": 1,
            "y": 1
          },
          "type": "TextBox",
          "size": 48,
          "text": "<font>Quatrième question</font>",
          "selected": false
        },
        {
          "TextBox": {},
          "x": 96,
          "y": 146,
          "scale": {
            "x": 1,
            "y": 1
          },
          "type": "TextBox",
          "size": 36,
          "text": "<b>Pensez-vous être influencé par une personne si elle <br>vous offrait un stylo ou un kouign-amann ?</b><br>",
          "selected": false
        },
        {
          "TextBox": {},
          "x": 116,
          "y": 495,
          "scale": {
            "x": 1,
            "y": 1
          },
          "type": "TextBox",
          "size": 36,
          "text": "Gardez la main en l’air si vous pensez que c'est vrai.<br>",
          "selected": false
        },
        {
          "TextBox": {},
          "x": 117,
          "y": 570,
          "scale": {
            "x": 1,
            "y": 1
          },
          "type": "TextBox",
          "size": 36,
          "text": "Baissez la main si vous pensez que c’est faux.<br>",
          "selected": false
        }
      ],
      "z": 0,
      "impScale": 3,
      "rotateX": 0,
      "rotateY": 0,
      "rotateZ": 0,
      "index": 12,
      "selected": false,
      "active": false,
      "x": 2311,
      "y": 166
    },
    {
      "components": [
        {
          "TextBox": {},
          "x": 171,
          "y": 44,
          "scale": {
            "x": 1,
            "y": 1
          },
          "type": "TextBox",
          "size": 48,
          "text": "<font>L'illusion d'unique invulnérabilité</font>",
          "selected": false
        },
        {
          "src": "http://i.imgur.com/1WEBXV0.png",
          "type": "Image",
          "x": 110,
          "y": 179,
          "scale": {
            "x": 0.6481481481481481,
            "y": 0.6481481481481481,
            "width": 805,
            "height": 409.6296296296296
          },
          "imageType": "PNG",
          "selected": false
        }
      ],
      "z": 0,
      "impScale": 3,
      "rotateX": 1.57,
      "rotateY": 0,
      "rotateZ": 0,
      "index": 13,
      "selected": false,
      "active": false,
      "x": 2308,
      "y": 718
    },
    {
      "components": [
        {
          "TextBox": {},
          "x": 159,
          "y": 44,
          "scale": {
            "x": 1,
            "y": 1
          },
          "type": "TextBox",
          "size": 48,
          "text": "<font>Apprentissage par la participation</font>",
          "selected": false
        },
        {
          "src": "http://i.imgur.com/KjOn7mV.jpg",
          "type": "Image",
          "x": 26,
          "y": 267,
          "scale": {
            "x": 0.22900390625000003,
            "y": 0.22900390625000003,
            "width": 469.00000000000006,
            "height": 312.59033203125006
          },
          "imageType": "JPG",
          "selected": false
        },
        {
          "src": "http://i.imgur.com/IQLEW92.jpg",
          "type": "Image",
          "x": 559,
          "y": 255,
          "scale": {
            "x": 0.3558333333333334,
            "y": 0.3558333333333334,
            "width": 427.00000000000006,
            "height": 320.25000000000006
          },
          "imageType": "JPG",
          "selected": false
        }
      ],
      "z": 0,
      "impScale": 3,
      "rotateX": 0,
      "rotateY": -0.79,
      "rotateZ": 0,
      "index": 14,
      "selected": false,
      "active": false,
      "x": 2538,
      "y": 511
    },
    {
      "components": [
        {
          "src": "http://i.imgur.com/GkeOlqw.jpg",
          "type": "Image",
          "x": 246,
          "y": 118,
          "scale": {
            "x": 0.220746887966805,
            "y": 0.220746887966805,
            "width": 532,
            "height": 532.4414937759336
          },
          "imageType": "JPG",
          "selected": false
        },
        {
          "TextBox": {},
          "x": 340,
          "y": 44,
          "scale": {
            "x": 1,
            "y": 1
          },
          "type": "TextBox",
          "text": "<font>L'ECN s'exporte!</font>",
          "size": 48,
          "selected": false
        }
      ],
      "z": 0,
      "impScale": 3,
      "rotateX": 0,
      "rotateY": -0.7,
      "rotateZ": 0,
      "index": 15,
      "selected": false,
      "active": false,
      "surface": "bg-surf-grad-light",
      "x": 2770,
      "y": 335
    },
    {
      "components": [
        {
          "TextBox": {},
          "x": 95,
          "y": 44,
          "scale": {
            "x": 1,
            "y": 1
          },
          "type": "TextBox",
          "size": 24,
          "text": "<b>Conflict of Interest Policies at French Medical Schools: Starting from the Bottom</b><br>",
          "selected": false
        },
        {
          "src": "http://i.imgur.com/u2N81tn.png",
          "type": "Image",
          "x": 289,
          "y": 118,
          "scale": {
            "x": 0.7268292682926829,
            "y": 0.7268292682926829,
            "width": 447,
            "height": 533.4926829268293
          },
          "imageType": "PNG",
          "selected": false
        }
      ],
      "z": 0,
      "impScale": 3,
      "rotateX": 0,
      "rotateY": -0.79,
      "rotateZ": 0,
      "index": 16,
      "selected": false,
      "active": false,
      "x": 3014,
      "y": 147
    },
    {
      "components": [
        {
          "TextBox": {},
          "x": 399,
          "y": 61,
          "scale": {
            "x": 1,
            "y": 1
          },
          "type": "TextBox",
          "size": 48,
          "text": "Et ailleurs?<br>",
          "selected": false
        },
        {
          "TextBox": {},
          "x": 35,
          "y": 255,
          "scale": {
            "x": 1,
            "y": 1
          },
          "type": "TextBox",
          "size": 36,
          "text": "<ul><li>FACRIPP à Bordeaux (DMG)</li><li>Formations à l'indépendance&nbsp; (DMG de Lyon)</li><li>Plusieurs 'topo' d'externe présentés en stage</li><li>ANEMF<br></li></ul>",
          "selected": false
        }
      ],
      "z": 0,
      "impScale": 3,
      "rotateX": 0,
      "rotateY": -0.79,
      "rotateZ": 0,
      "index": 17,
      "selected": false,
      "active": false,
      "x": 3255,
      "y": -2,
      "surface": "bg-default",
      "background": "bg-transparent"
    },
    {
      "components": [
        {
          "TextBox": {},
          "x": 417,
          "y": 61,
          "scale": {
            "x": 1,
            "y": 1
          },
          "type": "TextBox",
          "size": 48,
          "text": "Et après?<br>",
          "selected": false
        },
        {
          "TextBox": {},
          "x": 46,
          "y": 256,
          "scale": {
            "x": 1,
            "y": 1
          },
          "type": "TextBox",
          "size": 48,
          "text": "<ul><li><font>Classement des CHU</font></li><li><font>Instance de prévention (Toulouse)</font></li><li><font>Journées de l'EBM (Esprit Brestois Médical)?</font></li><li><font>LCA de publicités médicamenteuses</font></li><li><font>Etc.<br></font></li></ul>",
          "selected": false
        }
      ],
      "z": 0,
      "impScale": 3,
      "rotateX": 1.57,
      "rotateY": 0,
      "rotateZ": 0,
      "index": 18,
      "selected": false,
      "active": false,
      "surface": "bg-default",
      "x": 2812,
      "y": 898
    },
    {
      "components": [
        {
          "src": "https://i.imgur.com/90cuDFe.png",
          "type": "Image",
          "x": 249,
          "y": 12,
          "scale": {
            "x": 0.5146484375,
            "y": 0.5146484375,
            "width": 527,
            "height": 743.6669921875
          },
          "imageType": "PNG",
          "selected": false
        }
      ],
      "z": 0,
      "impScale": 3,
      "rotateX": 1.57,
      "rotateY": 0,
      "rotateZ": 0,
      "index": 19,
      "selected": false,
      "active": false,
      "surface": "bg-surf-grad-light",
      "x": 3098,
      "y": 889
    },
    {
      "components": [
        {
          "TextBox": {},
          "x": 442,
          "y": 44,
          "scale": {
            "x": 1,
            "y": 1
          },
          "type": "TextBox",
          "size": 48,
          "text": "<font>Merci!</font>",
          "selected": false
        },
        {
          "src": "https://i.imgur.com/nCUES9m.png",
          "type": "Image",
          "x": 91,
          "y": 235,
          "scale": {
            "x": 1,
            "y": 1
          },
          "imageType": "PNG",
          "selected": false
        }
      ],
      "z": 0,
      "impScale": 3,
      "rotateX": 1.57,
      "rotateY": 0,
      "rotateZ": 0,
      "index": 20,
      "selected": false,
      "active": false,
      "surface": "bg-surf-grad-light",
      "x": 3384,
      "y": 874
    }
  ],
  "activeSlide": {
    "components": [
      {
        "TextBox": {},
        "x": 340,
        "y": 44,
        "scale": {
          "x": 1,
          "y": 1
        },
        "type": "TextBox",
        "size": 48,
        "text": "<font>Notre démarche</font>",
        "selected": false
      },
      {
        "TextBox": {},
        "x": 30,
        "y": 168,
        "scale": {
          "x": 1,
          "y": 1
        },
        "type": "TextBox",
        "size": 36,
        "text": "<font>Eveiller l'esprit critique</font>",
        "selected": false
      },
      {
        "TextBox": {},
        "x": 30,
        "y": 350,
        "scale": {
          "x": 1,
          "y": 1
        },
        "type": "TextBox",
        "size": 36,
        "text": "<font class=\"\">Outils pédagogiques innovants et participatifs</font>",
        "selected": false
      },
      {
        "src": "https://i.imgur.com/ANyrcuA.jpg",
        "type": "Image",
        "x": 335,
        "y": 451,
        "scale": {
          "x": 0.3466796875,
          "y": 0.3466796875,
          "width": 355,
          "height": 269.3701171875
        },
        "imageType": "JPG",
        "selected": false
      },
      {
        "TextBox": {},
        "x": 700,
        "y": 605,
        "scale": {
          "x": 1,
          "y": 1
        },
        "type": "TextBox",
        "size": 24,
        "text": "Good/bad, bad/good?<br>Jeroen Heester<br>NDSM Amsterdam<br>2017<br>",
        "selected": false
      },
      {
        "TextBox": {},
        "x": 63,
        "y": 271,
        "scale": {
          "x": 1,
          "y": 1
        },
        "type": "TextBox",
        "size": 19,
        "text": "&nbsp;Esprit critique. Esprit qui n'accepte aucune assertion sans contrôler la valeur de son contenu et son origine.",
        "selected": false
      },
      {
        "TextBox": {},
        "x": 607,
        "y": 303,
        "scale": {
          "x": 1,
          "y": 1
        },
        "type": "TextBox",
        "size": 16,
        "text": "centre naitonal de ressources textuelles et lexicales<br>",
        "selected": false
      }
    ],
    "z": 0,
    "impScale": 3,
    "rotateX": 0,
    "rotateY": 0,
    "rotateZ": 0,
    "index": 4,
    "selected": true,
    "active": true,
    "x": 1033,
    "y": 173,
    "background": "bg-transparent"
  },
  "fileName": "topo-brest-1.strut",
  "deckVersion": "1.0",
  "customBackgrounds": {
    "bgs": []
  },
  "overviewX": 1777.5,
  "overviewY": 448
}